{
    "cards": [
        {
            "id": "1",
            "row1": [1, 23, 44, 61, 80],
            "row2": [16, 36, 58, 68, 84],
            "row3": [28, 49, 59, 71, 89]
        },
        {
            "id": "2",
            "row1": [2, 24, 31, 51, 70],
            "row2": [13, 39, 46, 67, 73],
            "row3": [7, 19, 48, 56, 87]
        },
        {
            "id": "3",
            "row1": [3, 20, 33, 77, 83],
            "row2": [10, 38, 41, 65, 79],
            "row3": [18, 29, 45, 50, 86]
        },
        {
            "id": "4",
            "row1": [4, 14, 32, 60, 82],
            "row2": [17, 27, 40, 53, 74],
            "row3": [8, 37, 66, 78, 85]
        },
        {
            "id": "5",
            "row1": [5, 21, 47, 62, 81],
            "row2": [11, 25, 30, 52, 72],
            "row3": [15, 35, 55, 63, 75]
        },
        {
            "id": "6",
            "row1": [6, 22, 42, 54, 76],
            "row2": [12, 34, 57, 64, 88],
            "row3": [9, 26, 43, 69, 90]
        },
        {
            "id": "7",
            "row1": [4, 31, 40, 69, 74],
            "row2": [7, 23, 37, 53, 79],
            "row3": [13, 25, 47, 58, 87]
        },
        {
            "id": "8",
            "row1": [1, 22, 61, 72, 83],
            "row2": [17, 33, 49, 67, 73],
            "row3": [8, 18, 35, 50, 85]
        },
        {
            "id": "9",
            "row1": [2, 20, 36, 70, 84],
            "row2": [16, 46, 51, 71, 86],
            "row3": [9, 27, 38, 56, 66]
        },
        {
            "id": "10",
            "row1": [10, 28, 52, 65, 80],
            "row2": [5, 32, 41, 68, 81],
            "row3": [19, 29, 44, 78, 82]
        },
        {
            "id": "11",
            "row1": [11, 21, 45, 62, 88],
            "row2": [14, 30, 48, 54, 77],
            "row3": [3, 24, 57, 63, 90]
        },
        {
            "id": "12",
            "row1": [12, 34, 42, 55, 75],
            "row2": [6, 43, 59, 60, 89],
            "row3": [15, 26, 39, 64, 76]
        },
        {
            "id": "13",
            "row1": [10, 31, 54, 63, 82],
            "row2": [3, 19, 40, 67, 74],
            "row3": [28, 45, 55, 75, 90]
        },
        {
            "id": "14",
            "row1": [20, 33, 56, 65, 85],
            "row2": [4, 12, 38, 68, 71],
            "row3": [9, 26, 47, 59, 88]
        },
        {
            "id": "15",
            "row1": [21, 30, 50, 73, 84],
            "row2": [5, 11, 34, 42, 61],
            "row3": [18, 37, 43, 62, 89]
        },
        {
            "id": "16",
            "row1": [22, 36, 52, 76, 80],
            "row2": [2, 13, 41, 60, 77],
            "row3": [7, 17, 27, 46, 81]
        },
        {
            "id": "17",
            "row1": [23, 32, 51, 64, 83],
            "row2": [8, 15, 35, 57, 72],
            "row3": [16, 29, 48, 78, 87]
        },
        {
            "id": "18",
            "row1": [24, 44, 53, 66, 86],
            "row2": [1, 14, 39, 58, 70],
            "row3": [6, 25, 49, 69, 79]
        },
        {
            "id": "19",
            "row1": [10, 25, 45, 62, 75],
            "row2": [7, 36, 47, 69, 84],
            "row3": [13, 38, 57, 79, 89]
        },
        {
            "id": "20",
            "row1": [14, 26, 48, 65, 77],
            "row2": [1, 33, 49, 67, 81],
            "row3": [5, 28, 37, 59, 78]
        },
        {
            "id": "21",
            "row1": [11, 21, 41, 50, 80],
            "row2": [2, 32, 53, 61, 83],
            "row3": [9, 15, 46, 58, 74]
        },
        {
            "id": "22",
            "row1": [16, 35, 42, 60, 87],
            "row2": [3, 22, 54, 66, 88],
            "row3": [8, 29, 44, 56, 70]
        },
        {
            "id": "23",
            "row1": [17, 20, 43, 64, 85],
            "row2": [4, 24, 31, 55, 71],
            "row3": [6, 19, 34, 73, 90]
        },
        {
            "id": "24",
            "row1": [12, 23, 51, 72, 82],
            "row2": [18, 30, 40, 63, 76],
            "row3": [27, 39, 52, 68, 86]
        },
        {
            "id": "25",
            "row1": [22, 40, 56, 70, 80],
            "row2": [8, 11, 38, 68, 83],
            "row3": [15, 25, 39, 59, 79]
        },
        {
            "id": "26",
            "row1": [23, 48, 62, 75, 82],
            "row2": [5, 26, 55, 77, 84],
            "row3": [33, 57, 65, 78, 89]
        },
        {
            "id": "27",
            "row1": [24, 44, 51, 60, 85],
            "row2": [1, 16, 34, 49, 69],
            "row3": [6, 19, 27, 54, 76]
        },
        {
            "id": "28",
            "row1": [21, 31, 63, 74, 81],
            "row2": [2, 10, 28, 35, 58],
            "row3": [7, 12, 36, 64, 86]
        },
        {
            "id": "29",
            "row1": [20, 41, 61, 71, 90],
            "row2": [3, 13, 29, 43, 67],
            "row3": [9, 17, 32, 45, 72]
        },
        {
            "id": "30",
            "row1": [30, 42, 50, 73, 87],
            "row2": [4, 14, 37, 46, 52],
            "row3": [18, 47, 53, 66, 88]
        },
        {
            "id": "31",
            "row1": [30, 42, 64, 71, 81],
            "row2": [6, 16, 24, 47, 66],
            "row3": [19, 31, 57, 76, 90]
        },
        {
            "id": "32",
            "row1": [32, 50, 60, 74, 84],
            "row2": [1, 20, 43, 51, 86],
            "row3": [9, 27, 45, 53, 61]
        },
        {
            "id": "33",
            "row1": [33, 46, 62, 78, 80],
            "row2": [3, 11, 22, 58, 68],
            "row3": [15, 25, 37, 79, 88]
        },
        {
            "id": "34",
            "row1": [34, 40, 56, 63, 77],
            "row2": [4, 10, 21, 59, 83],
            "row3": [7, 12, 26, 39, 65]
        },
        {
            "id": "35",
            "row1": [35, 41, 54, 72, 82],
            "row2": [2, 13, 28, 48, 73],
            "row3": [5, 17, 38, 55, 87]
        },
        {
            "id": "36",
            "row1": [36, 44, 67, 70, 85],
            "row2": [8, 14, 23, 49, 89],
            "row3": [18, 29, 52, 69, 75]
        },
        {
            "id": "37",
            "row1": [33, 46, 61, 72, 83],
            "row2": [1, 14, 22, 49, 73],
            "row3": [5, 26, 37, 59, 65]
        },
        {
            "id": "38",
            "row1": [32, 45, 62, 75, 84],
            "row2": [13, 25, 47, 57, 69],
            "row3": [7, 16, 38, 79, 89]
        },
        {
            "id": "39",
            "row1": [36, 50, 63, 74, 82],
            "row2": [12, 23, 39, 68, 76],
            "row3": [9, 18, 24, 51, 86]
        },
        {
            "id": "40",
            "row1": [40, 52, 67, 78, 80],
            "row2": [11, 21, 30, 44, 53],
            "row3": [2, 17, 29, 48, 81]
        },
        {
            "id": "41",
            "row1": [41, 54, 60, 71, 90],
            "row2": [3, 10, 31, 43, 66],
            "row3": [8, 20, 35, 58, 77]
        },
        {
            "id": "42",
            "row1": [42, 55, 64, 70, 85],
            "row2": [4, 15, 27, 34, 87],
            "row3": [6, 19, 28, 56, 88]
        },
        {
            "id": "43",
            "row1": [42, 52, 60, 70, 84],
            "row2": [15, 27, 34, 61, 89],
            "row3": [5, 18, 37, 43, 72]
        },
        {
            "id": "44",
            "row1": [44, 56, 68, 73, 88],
            "row2": [1, 12, 25, 49, 69],
            "row3": [6, 26, 35, 59, 74]
        },
        {
            "id": "45",
            "row1": [40, 50, 63, 75, 83],
            "row2": [3, 16, 30, 67, 87],
            "row3": [17, 24, 45, 57, 76]
        },
        {
            "id": "46",
            "row1": [46, 58, 62, 78, 80],
            "row2": [2, 11, 21, 32, 79],
            "row3": [7, 13, 28, 36, 81]
        },
        {
            "id": "47",
            "row1": [47, 53, 64, 71, 85],
            "row2": [4, 20, 33, 65, 86],
            "row3": [9, 14, 22, 38, 54]
        },
        {
            "id": "48",
            "row1": [41, 51, 66, 77, 82],
            "row2": [10, 23, 31, 55, 90],
            "row3": [8, 19, 29, 39, 48]
        },
    ]
}
